{
  "enemies": [
    {
      "name": "Joe",
      "race": "Dilga",
      "class": "druid",
      "description": "The academy master.",
      "ai": "NPC",
      "glyph": "@",
      "fg": "yellow2",
      "bg": "black",
      "image": "25",
      "armourset": "RANDOM",
      "jeweleryset": "balanced",
      "weapons-main": "",
      "weapons-off": "",
      "weapons-both": "staff"
    },
     {
      "name": "Kenny",
      "race": "Dilga",
      "class": "witchdoctor",
      "description": "Dumb enemy.",
      "ai": "MONSTER",
      "glyph": "k",
      "fg": "blue",
      "bg": "black",
      "image": "25",
      "armourset": "RANDOM",
      "jeweleryset": "balanced",
      "weapons-main": "",
      "weapons-off": "",
      "weapons-both": "staff"
    }
    ]
}