{
  "gemstones": [
  {
    "Stone": "Amber",
    "Type": "Pebble",
    "Attribute": "Condition Damage",
    "glyph": "*",
    "fg_colour": "white",
    "bg_colour": "black",
    "Gem": 3,
    "Amulet": 15,
    "Ring": 6,
    "Earring": 5
  },
  {
    "Stone": "Garnet",
    "Type": "Pebble",
    "Attribute": "Power",
    "Gem": 3,
    "Amulet": 15,
    "Ring": 6,
    "Earring": 5,
    "glyph": "*",
    "fg_colour": "white",
    "bg_colour": "black"
  },
  {
    "Stone": "Turquoise",
    "Type": "Pebble",
    "Attribute": "Vitality",
    "Gem": 3,
    "Amulet": 15,
    "Ring": 6,
    "Earring": 5,
    "glyph": "*",
    "fg_colour": "white",
    "bg_colour": "black"
  },
  {
    "Stone": "Malachite",
    "Type": "Pebble",
    "Attribute": "Toughness",
    "Gem": 3,
    "Amulet": 15,
    "Ring": 8,
    "Earring": 7,
    "glyph": "*",
    "fg_colour": "white",
    "bg_colour": "black"
  },
  {
    "Stone": "Pearl",
    "Type": "Pebble",
    "Attribute": "Healing Power",
    "Gem": 3,
    "Amulet": 15,
    "Ring": 8,
    "Earring": 7,
    "glyph": "*",
    "fg_colour": "white",
    "bg_colour": "black"
  },
  {
    "Stone": "TigersEye",
    "Type": "Pebble",
    "Attribute": "Precision",
    "Gem": 3,
    "Amulet": 15,
    "Ring": 8,
    "Earring": 7,
    "glyph": "*",
    "fg_colour": "white",
    "bg_colour": "black"
  }
]
}