{
  "weapons": [
{
  "name": "sword",
  "display_name": "a sword",
  "can_be_equipped": "False",
  "can_be_wielded": "True",
  "glyph": "}",
  "fg_colour": "white",
  "bg_colour": "black",
  "quality_level": "normal",
  "description": "a sword",
  "can_be_rendered": "True",
  "wielded_hands": "both",
  "damage_ranges": [
    {
      "id": "1",
      "min": "70",
      "max": "83"
    },
    {
      "id": "5",
      "min": "130",
      "max": "144"
    },
    {
      "id": "10",
      "min": "145",
      "max": "159"
    },
    {
      "id": "15",
      "min": "160",
      "max": "174"
    },
    {
      "id": "20",
      "min": "175",
      "max": "189"
    },
    {
      "id": "25",
      "min": "190",
      "max": "204"
    },
    {
      "id": "30",
      "min": "220",
      "max": "234"
    },
    {
      "id": "35",
      "min": "250",
      "max": "264"
    },
    {
      "id": "40",
      "min": "280",
      "max": "294"
    },
    {
      "id": "45",
      "min": "310",
      "max": "324"
    },
    {
      "id": "50",
      "min": "340",
      "max": "354"
    },
    {
      "id": "55",
      "min": "370",
      "max": "384"
    },
    {
      "id": "60",
      "min": "400",
      "max": "414"
    },
    {
      "id": "65",
      "min": "450",
      "max": "464"
    },
    {
      "id": "70",
      "min": "500",
      "max": "514"
    },
    {
      "id": "75",
      "min": "550",
      "max": "564"
    },
    {
      "id": "80",
      "min": "600",
      "max": "614"
    }
  ]
},
    {
      "name": "wand",
      "display_name": "a wand",
      "can_be_equipped": "False",
      "can_be_wielded": "True",
      "glyph": "/",
      "fg_colour": "white",
      "bg_colour": "black",
      "quality_level": "normal",
      "description": "a wand",
      "can_be_rendered": "True",
      "wielded_hands": "main",
        "damage_ranges": [
    {
      "id": "1",
      "min": "50",
      "max": "72"
    },
    {
      "id": "5",
      "min": "112",
      "max": "137"
    },
    {
      "id": "10",
      "min": "127",
      "max": "152"
    },
    {
      "id": "15",
      "min": "142",
      "max": "167"
    },
    {
      "id": "20",
      "min": "157",
      "max": "182"
    },
    {
      "id": "25",
      "min": "172",
      "max": "197"
    },
    {
      "id": "30",
      "min": "202",
      "max": "227"
    },
    {
      "id": "35",
      "min": "232",
      "max": "257"
    },
    {
      "id": "40",
      "min": "262",
      "max": "287"
    },
    {
      "id": "45",
      "min": "292",
      "max": "317"
    },
    {
      "id": "50",
      "min": "322",
      "max": "347"
    },
    {
      "id": "55",
      "min": "352",
      "max": "377"
    },
    {
      "id": "60",
      "min": "382",
      "max": "407"
    },
    {
      "id": "65",
      "min": "432",
      "max": "457"
    },
    {
      "id": "70",
      "min": "482",
      "max": "507"
    },
    {
      "id": "75",
      "min": "532",
      "max": "557"
    },
    {
      "id": "80",
      "min": "582",
      "max": "607"
    }
  ]
    },
    {
      "name": "scepter",
      "display_name": "a scepter",
      "can_be_equipped": "False",
      "can_be_wielded": "True",
      "glyph": "/",
      "fg_colour": "white",
      "bg_colour": "black",
      "quality_level": "normal",
      "description": "a scepter",
      "can_be_rendered": "True",
      "wielded_hands": "main",
        "damage_ranges": [
    {
      "id": "1",
      "min": "55",
      "max": "70"
    },
    {
      "id": "5",
      "min": "117",
      "max": "132"
    },
    {
      "id": "10",
      "min": "132",
      "max": "147"
    },
    {
      "id": "15",
      "min": "147",
      "max": "162"
    },
    {
      "id": "20",
      "min": "162",
      "max": "177"
    },
    {
      "id": "25",
      "min": "177",
      "max": "192"
    },
    {
      "id": "30",
      "min": "207",
      "max": "222"
    },
    {
      "id": "35",
      "min": "237",
      "max": "252"
    },
    {
      "id": "40",
      "min": "267",
      "max": "282"
    },
    {
      "id": "45",
      "min": "297",
      "max": "312"
    },
    {
      "id": "50",
      "min": "327",
      "max": "342"
    },
    {
      "id": "55",
      "min": "357",
      "max": "372"
    },
    {
      "id": "60",
      "min": "387",
      "max": "402"
    },
    {
      "id": "65",
      "min": "437",
      "max": "452"
    },
    {
      "id": "70",
      "min": "487",
      "max": "502"
    },
    {
      "id": "75",
      "min": "537",
      "max": "552"
    },
    {
      "id": "80",
      "min": "587",
      "max": "602"
    }
  ]
    },
    {
      "name": "staff",
      "display_name": "a staff",
      "can_be_equipped": "False",
      "can_be_wielded": "True",
      "glyph": "/",
      "fg_colour": "light_blue",
      "bg_colour": "black",
      "quality_level": "normal",
      "description": "a staff",
      "can_be_rendered": "True",
      "wielded_hands": "both",
        "damage_ranges": [
    {
      "id": "1",
      "min": "68",
      "max": "84"
    },
    {
      "id": "5",
      "min": "129",
      "max": "145"
    },
    {
      "id": "10",
      "min": "144",
      "max": "160"
    },
    {
      "id": "15",
      "min": "159",
      "max": "175"
    },
    {
      "id": "20",
      "min": "174",
      "max": "190"
    },
    {
      "id": "25",
      "min": "189",
      "max": "205"
    },
    {
      "id": "30",
      "min": "219",
      "max": "235"
    },
    {
      "id": "35",
      "min": "249",
      "max": "265"
    },
    {
      "id": "40",
      "min": "279",
      "max": "295"
    },
    {
      "id": "45",
      "min": "309",
      "max": "325"
    },
    {
      "id": "50",
      "min": "339",
      "max": "355"
    },
    {
      "id": "55",
      "min": "369",
      "max": "385"
    },
    {
      "id": "60",
      "min": "399",
      "max": "415"
    },
    {
      "id": "65",
      "min": "449",
      "max": "465"
    },
    {
      "id": "70",
      "min": "499",
      "max": "515"
    },
    {
      "id": "75",
      "min": "549",
      "max": "565"
    },
    {
      "id": "80",
      "min": "599",
      "max": "615"
    }
  ]
    },
    {
      "name": "dagger",
      "display_name": "a dagger",
      "can_be_equipped": "False",
      "can_be_wielded": "True",
      "glyph": "/",
      "fg_colour": "light_blue",
      "bg_colour": "black",
      "quality_level": "normal",
      "description": "a dagger",
      "can_be_rendered": "True",
      "wielded_hands": "both",
        "damage_ranges": [
    {
      "id": "1",
      "min": "60",
      "max": "66"
    },
    {
      "id": "5",
      "min": "121",
      "max": "128"
    },
    {
      "id": "10",
      "min": "136",
      "max": "143"
    },
    {
      "id": "15",
      "min": "151",
      "max": "158"
    },
    {
      "id": "20",
      "min": "166",
      "max": "173"
    },
    {
      "id": "25",
      "min": "181",
      "max": "188"
    },
    {
      "id": "30",
      "min": "211",
      "max": "218"
    },
    {
      "id": "35",
      "min": "241",
      "max": "248"
    },
    {
      "id": "40",
      "min": "271",
      "max": "278"
    },
    {
      "id": "45",
      "min": "301",
      "max": "308"
    },
    {
      "id": "50",
      "min": "331",
      "max": "338"
    },
    {
      "id": "55",
      "min": "361",
      "max": "368"
    },
    {
      "id": "60",
      "min": "391",
      "max": "398"
    },
    {
      "id": "65",
      "min": "441",
      "max": "448"
    },
    {
      "id": "70",
      "min": "491",
      "max": "498"
    },
    {
      "id": "75",
      "min": "541",
      "max": "548"
    },
    {
      "id": "80",
      "min": "591",
      "max": "598"
    }
  ]
    },
    {
      "name": "rod",
      "display_name": "a rod",
      "can_be_equipped": "False",
      "can_be_wielded": "True",
      "glyph": "-",
      "fg_colour": "light_blue",
      "bg_colour": "black",
      "quality_level": "normal",
      "description": "a rod",
      "can_be_rendered": "True",
      "wielded_hands": "off",
        "damage_ranges": [
    {
      "id": "1",
      "min": "42",
      "max": "60"
    },
    {
      "id": "5",
      "min": "103",
      "max": "121"
    },
    {
      "id": "10",
      "min": "118",
      "max": "136"
    },
    {
      "id": "15",
      "min": "133",
      "max": "151"
    },
    {
      "id": "20",
      "min": "148",
      "max": "166"
    },
    {
      "id": "25",
      "min": "163",
      "max": "181"
    },
    {
      "id": "30",
      "min": "193",
      "max": "211"
    },
    {
      "id": "35",
      "min": "223",
      "max": "241"
    },
    {
      "id": "40",
      "min": "253",
      "max": "271"
    },
    {
      "id": "45",
      "min": "283",
      "max": "301"
    },
    {
      "id": "50",
      "min": "313",
      "max": "331"
    },
    {
      "id": "55",
      "min": "343",
      "max": "361"
    },
    {
      "id": "60",
      "min": "373",
      "max": "391"
    },
    {
      "id": "65",
      "min": "423",
      "max": "441"
    },
    {
      "id": "70",
      "min": "473",
      "max": "491"
    },
    {
      "id": "75",
      "min": "523",
      "max": "541"
    },
    {
      "id": "80",
      "min": "573",
      "max": "591"
    }
  ]
    },
    {
      "name": "focus",
      "display_name": "a focus",
      "can_be_equipped": "False",
      "can_be_wielded": "True",
      "glyph": "/",
      "fg_colour": "light_blue",
      "bg_colour": "black",
      "quality_level": "normal",
      "description": "a focus",
      "can_be_rendered": "True",
      "wielded_hands": "off",
      "damage_ranges": [
        {
          "id": "1",
          "min": "47",
          "max": "58"
        },
        {
          "id": "5",
          "min": "109",
          "max": "116"
        },
        {
          "id": "10",
          "min": "124",
          "max": "131"
        },
        {
          "id": "15",
          "min": "139",
          "max": "146"
        },
        {
          "id": "20",
          "min": "154",
          "max": "161"
        },
        {
          "id": "25",
          "min": "169",
          "max": "176"
        },
        {
          "id": "30",
          "min": "199",
          "max": "206"
        },
        {
          "id": "35",
          "min": "229",
          "max": "236"
        },
        {
          "id": "40",
          "min": "259",
          "max": "266"
        },
        {
          "id": "45",
          "min": "289",
          "max": "319"
        },
        {
          "id": "50",
          "min": "319",
          "max": "326"
        },
        {
          "id": "55",
          "min": "349",
          "max": "356"
        },
        {
          "id": "60",
          "min": "379",
          "max": "386"
        },
        {
          "id": "65",
          "min": "429",
          "max": "436"
        },
        {
          "id": "70",
          "min": "479",
          "max": "486"
        },
        {
          "id": "75",
          "min": "529",
          "max": "536"
        },
        {
          "id": "80",
          "min": "579",
          "max": "586"
        }
      ]
    }
  ]
}