{
  "scenes":
  [
    {
      "name": "academy",
      "loadMap": "startArea",
      "mapx": "41",
      "mapy": "47",
      "npcs": [
        {
          "displayName": "Joe",
          "internalName": "academyMaster",
          "class": "player",
          "weapon": "staff",
          "identifier": "A"
        },
        {
          "displayName": "random",
          "internalName": "practiceMaster",
          "class": "random",
          "weapon": "random",
          "identifier": "B"
        }
        ],
      "theme": "dungeon",
      "sceneExits": "enemyCamp"
    }
  ]
}